waves/MemorySumming/test.vcd
$version Generated by VerilatedVcd $end
$date mar. 19 avril 2022 15:40:43 $end
$timescale 1ps $end

 $scope module TOP $end
  $var wire  1 - io_sum_clk $end
  $var wire  1 * io_sum_done $end
  $var wire  1 . io_sum_reset $end
  $var wire  1 ) io_sum_start $end
  $var wire 16 + io_sum_value [15:0] $end
  $var wire  8 ' io_wr_addr [7:0] $end
  $var wire  1 , io_wr_clk $end
  $var wire 16 ( io_wr_data [15:0] $end
  $var wire  1 & io_wr_en $end
  $scope module MemorySumming $end
   $var wire  1 - io_sum_clk $end
   $var wire  1 * io_sum_done $end
   $var wire  1 . io_sum_reset $end
   $var wire  1 ) io_sum_start $end
   $var wire 16 + io_sum_value [15:0] $end
   $var wire  8 ' io_wr_addr [7:0] $end
   $var wire  1 , io_wr_clk $end
   $var wire 16 ( io_wr_data [15:0] $end
   $var wire  1 & io_wr_en $end
   $var wire 16 / myRam_io_rd_data [15:0] $end
   $var wire  8 0 sumArea_addrCounter [7:0] $end
   $var wire  1 # sumArea_isStart $end
   $var wire  1 % sumArea_rdValid $end
   $var wire  1 3 sumArea_rdValid_regNext $end
   $var wire 16 2 sumArea_sum [15:0] $end
   $var wire  1 $ when_MemorySumming_l64 $end
   $var wire  1 1 when_MemorySumming_l69 $end
   $var wire  1 4 when_MemorySumming_l82 $end
   $scope module myRam $end
    $var wire 32 5 addressWidth [31:0] $end
    $var wire  8 0 io_rd_addr [7:0] $end
    $var wire  1 - io_rd_clk $end
    $var wire 16 / io_rd_data [15:0] $end
    $var wire  1 # io_rd_en $end
    $var wire  8 ' io_wr_addr [7:0] $end
    $var wire  1 , io_wr_clk $end
    $var wire 16 ( io_wr_data [15:0] $end
    $var wire  1 & io_wr_en $end
    $var wire 32 6 wordWidth [31:0] $end
   $upscope $end
  $upscope $end
 $upscope $end
$enddefinitions $end


#0
0#
1$
0%
1&
b00000000 '
b0000110000011001 (
0)
0*
b0111100001101010 +
0,
0-
1.
b1111011011111001 /
b10011111 0
01
b0111100001101010 2
03
04
b00000000000000000000000000001000 5
b00000000000000000000000000010000 6
#10
b00000001 '
b1011001001111011 (
1,
#15
0,
#20
b00000010 '
b0111011111100011 (
1,
#25
0,
#30
b00000011 '
b1111001110001011 (
1,
#35
0,
#40
b00000100 '
b0000111000001101 (
1,
#45
0,
#50
b00000101 '
b0011010000000000 (
1,
#55
0,
#60
b00000110 '
b0011010001111100 (
1,
#65
0,
#70
b00000111 '
b0000001001001000 (
1,
#75
0,
#80
b00001000 '
b0001010011110011 (
1,
#85
0,
#90
b00001001 '
b1110100011111111 (
1,
#95
0,
#100
b00001010 '
b1001010010110110 (
1,
#105
0,
#110
b00001011 '
b1100001111010110 (
1,
#112
0.
#115
0,
#119
b0000000000000000 +
1-
b00000000 0
b0000000000000000 2
#120
b00001100 '
b0111110100010000 (
1,
#122
0-
#125
0,
1-
#128
0-
#130
b00001101 '
b0101111100000010 (
1,
#131
1-
#134
0-
#135
0,
#137
1-
#140
b00001110 '
b1011001110011001 (
1,
0-
#143
1-
#145
0,
#146
0-
#149
1-
#150
b00001111 '
b1011110101110101 (
1,
#152
0-
#155
0,
1-
#158
0-
#160
b00010000 '
b1001110011001101 (
1,
#161
1-
#164
0-
#165
0,
#167
1-
#170
b00010001 '
b1100101101101000 (
1,
0-
#173
1-
#175
0,
#176
0-
#179
1-
#180
b00010010 '
b1110010010000001 (
1,
#182
0-
#185
0,
1-
#188
0-
#190
b00010011 '
b1000011000110111 (
1,
#191
1-
#194
0-
#195
0,
#197
1-
#200
b00010100 '
b1110101011101010 (
1,
0-
#203
1-
#205
0,
#206
0-
#209
1-
#210
b00010101 '
b0011111100111110 (
1,
#212
0-
#215
0,
1-
#218
0-
#220
b00010110 '
b0111000000100011 (
1,
#221
1-
#224
0-
#225
0,
#227
1-
#230
b00010111 '
b1101101111101001 (
1,
0-
#233
1-
#235
0,
#236
0-
#239
1-
#240
b00011000 '
b0110010010100100 (
1,
#242
0-
#245
0,
1-
#248
0-
#250
b00011001 '
b0011110111100010 (
1,
#251
1-
#254
0-
#255
0,
#257
1-
#260
b00011010 '
b0100100011111100 (
1,
0-
#263
1-
#265
0,
#266
0-
#269
1-
#270
b00011011 '
b0111100101000000 (
1,
#272
0-
#275
0,
1-
#278
0-
#280
b00011100 '
b1110110110011011 (
1,
#281
1-
#284
0-
#285
0,
#287
1-
#290
b00011101 '
b1000111101010011 (
1,
0-
#293
1-
#295
0,
#296
0-
#299
1-
#300
b00011110 '
b0011010111110000 (
1,
#302
0-
#305
0,
1-
#308
0-
#310
b00011111 '
b1001110010110101 (
1,
#311
1-
#314
0-
#315
0,
#317
1-
#320
b00100000 '
b0111111110100110 (
1,
0-
#323
1-
#325
0,
#326
0-
#329
1-
#330
b00100001 '
b0011010111001110 (
1,
#332
0-
#335
0,
1-
#338
0-
#340
b00100010 '
b1000101110100111 (
1,
#341
1-
#344
0-
#345
0,
#347
1-
#350
b00100011 '
b0100100000010011 (
1,
0-
#353
1-
#355
0,
#356
0-
#359
1-
#360
b00100100 '
b0111011001000010 (
1,
#362
0-
#365
0,
1-
#368
0-
#370
b00100101 '
b0110001001011001 (
1,
#371
1-
#374
0-
#375
0,
#377
1-
#380
b00100110 '
b0111100010011011 (
1,
0-
#383
1-
#385
0,
#386
0-
#389
1-
#390
b00100111 '
b1010010001101111 (
1,
#392
0-
#395
0,
1-
#398
0-
#400
b00101000 '
b0000110100000001 (
1,
#401
1-
#404
0-
#405
0,
#407
1-
#410
b00101001 '
b0111000111010001 (
1,
0-
#413
1-
#415
0,
#416
0-
#419
1-
#420
b00101010 '
b1000001101100110 (
1,
#422
0-
#425
0,
1-
#428
0-
#430
b00101011 '
b1011001101100111 (
1,
#431
1-
#434
0-
#435
0,
#437
1-
#440
b00101100 '
b1101101111011000 (
1,
0-
#443
1-
#445
0,
#446
0-
#449
1-
#450
b00101101 '
b1011110000000000 (
1,
#452
0-
#455
0,
1-
#458
0-
#460
b00101110 '
b0011101001010111 (
1,
#461
1-
#464
0-
#465
0,
#467
1-
#470
b00101111 '
b0011111101001100 (
1,
0-
#473
1-
#475
0,
#476
0-
#479
1-
#480
b00110000 '
b0001110001010010 (
1,
#482
0-
#485
0,
1-
#488
0-
#490
b00110001 '
b1110110001010011 (
1,
#491
1-
#494
0-
#495
0,
#497
1-
#500
b00110010 '
b0011110110001000 (
1,
0-
#503
1-
#505
0,
#506
0-
#509
1-
#510
b00110011 '
b0110011001100111 (
1,
#512
0-
#515
0,
1-
#518
0-
#520
b00110100 '
b0100100100000001 (
1,
#521
1-
#524
0-
#525
0,
#527
1-
#530
b00110101 '
b1101100010010110 (
1,
0-
#533
1-
#535
0,
#536
0-
#539
1-
#540
b00110110 '
b1111110101100011 (
1,
#542
0-
#545
0,
1-
#548
0-
#550
b00110111 '
b1110010001111010 (
1,
#551
1-
#554
0-
#555
0,
#557
1-
#560
b00111000 '
b0000001000010001 (
1,
0-
#563
1-
#565
0,
#566
0-
#569
1-
#570
b00111001 '
b0011100101110011 (
1,
#572
0-
#575
0,
1-
#578
0-
#580
b00111010 '
b0110110101100110 (
1,
#581
1-
#584
0-
#585
0,
#587
1-
#590
b00111011 '
b0111111010110000 (
1,
0-
#593
1-
#595
0,
#596
0-
#599
1-
#600
b00111100 '
b0111000000101001 (
1,
#602
0-
#605
0,
1-
#608
0-
#610
b00111101 '
b0011001100001001 (
1,
#611
1-
#614
0-
#615
0,
#617
1-
#620
b00111110 '
b1110100110111010 (
1,
0-
#623
1-
#625
0,
#626
0-
#629
1-
#630
b00111111 '
b0111010000001000 (
1,
#632
0-
#635
0,
1-
#638
0-
#640
b01000000 '
b1101011011000011 (
1,
#641
1-
#644
0-
#645
0,
#647
1-
#650
b01000001 '
b0110110110001101 (
1,
0-
#653
1-
#655
0,
#656
0-
#659
1-
#660
b01000010 '
b1111110011001100 (
1,
#662
0-
#665
0,
1-
#668
0-
#670
b01000011 '
b0011010011111101 (
1,
#671
1-
#674
0-
#675
0,
#677
1-
#680
b01000100 '
b1111001000101100 (
1,
0-
#683
1-
#685
0,
#686
0-
#689
1-
#690
b01000101 '
b0100011100111001 (
1,
#692
0-
#695
0,
1-
#698
0-
#700
b01000110 '
b0001101111111101 (
1,
#701
1-
#704
0-
#705
0,
#707
1-
#710
b01000111 '
b1011001100010110 (
1,
0-
#713
1-
#715
0,
#716
0-
#719
1-
#720
b01001000 '
b1011100011101100 (
1,
#722
0-
#725
0,
1-
#728
0-
#730
b01001001 '
b1101110111010111 (
1,
#731
1-
#734
0-
#735
0,
#737
1-
#740
b01001010 '
b1101011011000110 (
1,
0-
#743
1-
#745
0,
#746
0-
#749
1-
#750
b01001011 '
b1000001000101001 (
1,
#752
0-
#755
0,
1-
#758
0-
#760
b01001100 '
b0101010100110111 (
1,
#761
1-
#764
0-
#765
0,
#767
1-
#770
b01001101 '
b1100011100100100 (
1,
0-
#773
1-
#775
0,
#776
0-
#779
1-
#780
b01001110 '
b0000010110110001 (
1,
#782
0-
#785
0,
1-
#788
0-
#790
b01001111 '
b1001110000011011 (
1,
#791
1-
#794
0-
#795
0,
#797
1-
#800
b01010000 '
b1010111011110000 (
1,
0-
#803
1-
#805
0,
#806
0-
#809
1-
#810
b01010001 '
b0000100010110110 (
1,
#812
0-
#815
0,
1-
#818
0-
#820
b01010010 '
b1110110110001010 (
1,
#821
1-
#824
0-
#825
0,
#827
1-
#830
b01010011 '
b1001001010011111 (
1,
0-
#833
1-
#835
0,
#836
0-
#839
1-
#840
b01010100 '
b1100001010101111 (
1,
#842
0-
#845
0,
1-
#848
0-
#850
b01010101 '
b0111100111000011 (
1,
#851
1-
#854
0-
#855
0,
#857
1-
#860
b01010110 '
b1110001001000000 (
1,
0-
#863
1-
#865
0,
#866
0-
#869
1-
#870
b01010111 '
b0011001101100111 (
1,
#872
0-
#875
0,
1-
#878
0-
#880
b01011000 '
b1011001101101001 (
1,
#881
1-
#884
0-
#885
0,
#887
1-
#890
b01011001 '
b0011011111001010 (
1,
0-
#893
1-
#895
0,
#896
0-
#899
1-
#900
b01011010 '
b0000101110100001 (
1,
#902
0-
#905
0,
1-
#908
0-
#910
b01011011 '
b0101100001110100 (
1,
#911
1-
#914
0-
#915
0,
#917
1-
#920
b01011100 '
b0000010001000100 (
1,
0-
#923
1-
#925
0,
#926
0-
#929
1-
#930
b01011101 '
b0100001010110100 (
1,
#932
0-
#935
0,
1-
#938
0-
#940
b01011110 '
b1000011101101100 (
1,
#941
1-
#944
0-
#945
0,
#947
1-
#950
b01011111 '
b1011001001010011 (
1,
0-
#953
1-
#955
0,
#956
0-
#959
1-
#960
b01100000 '
b1000101110100111 (
1,
#962
0-
#965
0,
1-
#968
0-
#970
b01100001 '
b1111100111100000 (
1,
#971
1-
#974
0-
#975
0,
#977
1-
#980
b01100010 '
b0011011101110111 (
1,
0-
#983
1-
#985
0,
#986
0-
#989
1-
#990
b01100011 '
b1001001010100111 (
1,
#992
0-
#995
0,
1-
#998
0-
#1000
b01100100 '
b0110000101111001 (
1,
#1001
1-
#1004
0-
#1005
0,
#1007
1-
#1010
b01100101 '
b1110000111101011 (
1,
0-
#1013
1-
#1015
0,
#1016
0-
#1019
1-
#1020
b01100110 '
b0100001100011000 (
1,
#1022
0-
#1025
0,
1-
#1028
0-
#1030
b01100111 '
b0000010110101000 (
1,
#1031
1-
#1034
0-
#1035
0,
#1037
1-
#1040
b01101000 '
b1000010101010011 (
1,
0-
#1043
1-
#1045
0,
#1046
0-
#1049
1-
#1050
b01101001 '
b0110011100110000 (
1,
#1052
0-
#1055
0,
1-
#1058
0-
#1060
b01101010 '
b0101000000001001 (
1,
#1061
1-
#1064
0-
#1065
0,
#1067
1-
#1070
b01101011 '
b0010111001010000 (
1,
0-
#1073
1-
#1075
0,
#1076
0-
#1079
1-
#1080
b01101100 '
b0001000001010011 (
1,
#1082
0-
#1085
0,
1-
#1088
0-
#1090
b01101101 '
b1101001100010010 (
1,
#1091
1-
#1094
0-
#1095
0,
#1097
1-
#1100
b01101110 '
b0000101110001111 (
1,
0-
#1103
1-
#1105
0,
#1106
0-
#1109
1-
#1110
b01101111 '
b1100111000110100 (
1,
#1112
0-
#1115
0,
1-
#1118
0-
#1120
b01110000 '
b0001110101110001 (
1,
#1121
1-
#1124
0-
#1125
0,
#1127
1-
#1130
b01110001 '
b0011111010110000 (
1,
0-
#1133
1-
#1135
0,
#1136
0-
#1139
1-
#1140
b01110010 '
b0001000001000111 (
1,
#1142
0-
#1145
0,
1-
#1148
0-
#1150
b01110011 '
b1111110010111111 (
1,
#1151
1-
#1154
0-
#1155
0,
#1157
1-
#1160
b01110100 '
b1110010011101110 (
1,
0-
#1163
1-
#1165
0,
#1166
0-
#1169
1-
#1170
b01110101 '
b0101010001100100 (
1,
#1172
0-
#1175
0,
1-
#1178
0-
#1180
b01110110 '
b0000001011000000 (
1,
#1181
1-
#1184
0-
#1185
0,
#1187
1-
#1190
b01110111 '
b0100110010100010 (
1,
0-
#1193
1-
#1195
0,
#1196
0-
#1199
1-
#1200
b01111000 '
b1110000000111011 (
1,
#1202
0-
#1205
0,
1-
#1208
0-
#1210
b01111001 '
b0100111101011001 (
1,
#1211
1-
#1214
0-
#1215
0,
#1217
1-
#1220
b01111010 '
b1101011001100101 (
1,
0-
#1223
1-
#1225
0,
#1226
0-
#1229
1-
#1230
b01111011 '
b0101011111000110 (
1,
#1232
0-
#1235
0,
1-
#1238
0-
#1240
b01111100 '
b1100110100101001 (
1,
#1241
1-
#1244
0-
#1245
0,
#1247
1-
#1250
b01111101 '
b0000010100001011 (
1,
0-
#1253
1-
#1255
0,
#1256
0-
#1259
1-
#1260
b01111110 '
b0011000000000011 (
1,
#1262
0-
#1265
0,
1-
#1268
0-
#1270
b01111111 '
b1110001111111011 (
1,
#1271
1-
#1274
0-
#1275
0,
#1277
1-
#1280
b10000000 '
b1000011010001100 (
1,
0-
#1283
1-
#1285
0,
#1286
0-
#1289
1-
#1290
b10000001 '
b0100110010011010 (
1,
#1292
0-
#1295
0,
1-
#1298
0-
#1300
b10000010 '
b0110001101000010 (
1,
#1301
1-
#1304
0-
#1305
0,
#1307
1-
#1310
b10000011 '
b0111001110111111 (
1,
0-
#1313
1-
#1315
0,
#1316
0-
#1319
1-
#1320
b10000100 '
b0110111010110010 (
1,
#1322
0-
#1325
0,
1-
#1328
0-
#1330
b10000101 '
b1011101101100011 (
1,
#1331
1-
#1334
0-
#1335
0,
#1337
1-
#1340
b10000110 '
b0101111101101100 (
1,
0-
#1343
1-
#1345
0,
#1346
0-
#1349
1-
#1350
b10000111 '
b0010100001110111 (
1,
#1352
0-
#1355
0,
1-
#1358
0-
#1360
b10001000 '
b0111001011011101 (
1,
#1361
1-
#1364
0-
#1365
0,
#1367
1-
#1370
b10001001 '
b0010000101101010 (
1,
0-
#1373
1-
#1375
0,
#1376
0-
#1379
1-
#1380
b10001010 '
b0100010101111111 (
1,
#1382
0-
#1385
0,
1-
#1388
0-
#1390
b10001011 '
b1100110011111011 (
1,
#1391
1-
#1394
0-
#1395
0,
#1397
1-
#1400
b10001100 '
b1110111100011011 (
1,
0-
#1403
1-
#1405
0,
#1406
0-
#1409
1-
#1410
b10001101 '
b0010101110101001 (
1,
#1412
0-
#1415
0,
1-
#1418
0-
#1420
b10001110 '
b0100100010111011 (
1,
#1421
1-
#1424
0-
#1425
0,
#1427
1-
#1430
b10001111 '
b1100001001111001 (
1,
0-
#1433
1-
#1435
0,
#1436
0-
#1439
1-
#1440
b10010000 '
b0011010011111100 (
1,
#1442
0-
#1445
0,
1-
#1448
0-
#1450
b10010001 '
b0001000110100110 (
1,
#1451
1-
#1454
0-
#1455
0,
#1457
1-
#1460
b10010010 '
b1100101100010001 (
1,
0-
#1463
1-
#1465
0,
#1466
0-
#1469
1-
#1470
b10010011 '
b0101010010110011 (
1,
#1472
0-
#1475
0,
1-
#1478
0-
#1480
b10010100 '
b1000011011000000 (
1,
#1481
1-
#1484
0-
#1485
0,
#1487
1-
#1490
b10010101 '
b1011011111101010 (
1,
0-
#1493
1-
#1495
0,
#1496
0-
#1499
1-
#1500
b10010110 '
b0111101101101000 (
1,
#1502
0-
#1505
0,
1-
#1508
0-
#1510
b10010111 '
b1100011111011001 (
1,
#1511
1-
#1514
0-
#1515
0,
#1517
1-
#1520
b10011000 '
b1010100100010111 (
1,
0-
#1523
1-
#1525
0,
#1526
0-
#1529
1-
#1530
b10011001 '
b0111110110111001 (
1,
#1532
0-
#1535
0,
1-
#1538
0-
#1540
b10011010 '
b0010001101001100 (
1,
#1541
1-
#1544
0-
#1545
0,
#1547
1-
#1550
b10011011 '
b1011111110101001 (
1,
0-
#1553
1-
#1555
0,
#1556
0-
#1559
1-
#1560
b10011100 '
b0000000010110001 (
1,
#1562
0-
#1565
0,
1-
#1568
0-
#1570
b10011101 '
b0100101001000101 (
1,
#1571
1-
#1574
0-
#1575
0,
#1577
1-
#1580
b10011110 '
b0001000001101101 (
1,
0-
#1583
1-
#1585
0,
#1586
0-
#1589
1-
#1590
b10011111 '
b1000111111100010 (
1,
#1592
0-
#1595
0,
1-
#1598
0-
#1600
b10100000 '
b1001101110101001 (
1,
#1601
1-
#1604
0-
#1605
0,
#1607
1-
#1610
b10100001 '
b1110100010101111 (
1,
0-
#1613
1-
#1615
0,
#1616
0-
#1619
1-
#1620
b10100010 '
b1101001010111101 (
1,
#1622
0-
#1625
0,
1-
#1628
0-
#1630
b10100011 '
b1001111100000100 (
1,
#1631
1-
#1634
0-
#1635
0,
#1637
1-
#1640
b10100100 '
b1011001011011001 (
1,
0-
#1643
1-
#1645
0,
#1646
0-
#1649
1-
#1650
b10100101 '
b0110101011010101 (
1,
#1652
0-
#1655
0,
1-
#1658
0-
#1660
b10100110 '
b1100110110101111 (
1,
#1661
1-
#1664
0-
#1665
0,
#1667
1-
#1670
b10100111 '
b0111000010100011 (
1,
0-
#1673
1-
#1675
0,
#1676
0-
#1679
1-
#1680
b10101000 '
b1001100101110100 (
1,
#1682
0-
#1685
0,
1-
#1688
0-
#1690
b10101001 '
b1111010100110111 (
1,
#1691
1-
#1694
0-
#1695
0,
#1697
1-
#1700
b10101010 '
b1011100101011110 (
1,
0-
#1703
1-
#1705
0,
#1706
0-
#1709
1-
#1710
b10101011 '
b1011101000110011 (
1,
#1712
0-
#1715
0,
1-
#1718
0-
#1720
b10101100 '
b1100101100100010 (
1,
#1721
1-
#1724
0-
#1725
0,
#1727
1-
#1730
b10101101 '
b1101101011010000 (
1,
0-
#1733
1-
#1735
0,
#1736
0-
#1739
1-
#1740
b10101110 '
b0011101001000011 (
1,
#1742
0-
#1745
0,
1-
#1748
0-
#1750
b10101111 '
b0100011001110100 (
1,
#1751
1-
#1754
0-
#1755
0,
#1757
1-
#1760
b10110000 '
b1011011110010110 (
1,
0-
#1763
1-
#1765
0,
#1766
0-
#1769
1-
#1770
b10110001 '
b0110101000110100 (
1,
#1772
0-
#1775
0,
1-
#1778
0-
#1780
b10110010 '
b1011001011011110 (
1,
#1781
1-
#1784
0-
#1785
0,
#1787
1-
#1790
b10110011 '
b0111011010111111 (
1,
0-
#1793
1-
#1795
0,
#1796
0-
#1799
1-
#1800
b10110100 '
b0000011101001010 (
1,
#1802
0-
#1805
0,
1-
#1808
0-
#1810
b10110101 '
b1101111010101110 (
1,
#1811
1-
#1814
0-
#1815
0,
#1817
1-
#1820
b10110110 '
b0001110111101011 (
1,
0-
#1823
1-
#1825
0,
#1826
0-
#1829
1-
#1830
b10110111 '
b0010000011010110 (
1,
#1832
0-
#1835
0,
1-
#1838
0-
#1840
b10111000 '
b1010110101001111 (
1,
#1841
1-
#1844
0-
#1845
0,
#1847
1-
#1850
b10111001 '
b1111001111011111 (
1,
0-
#1853
1-
#1855
0,
#1856
0-
#1859
1-
#1860
b10111010 '
b0100100000011001 (
1,
#1862
0-
#1865
0,
1-
#1868
0-
#1870
b10111011 '
b1111100101101011 (
1,
#1871
1-
#1874
0-
#1875
0,
#1877
1-
#1880
b10111100 '
b0000111010100010 (
1,
0-
#1883
1-
#1885
0,
#1886
0-
#1889
1-
#1890
b10111101 '
b0000100101101111 (
1,
#1892
0-
#1895
0,
1-
#1898
0-
#1900
b10111110 '
b0000100101110111 (
1,
#1901
1-
#1904
0-
#1905
0,
#1907
1-
#1910
b10111111 '
b1111001000000111 (
1,
0-
#1913
1-
#1915
0,
#1916
0-
#1919
1-
#1920
b11000000 '
b1000111000101010 (
1,
#1922
0-
#1925
0,
1-
#1928
0-
#1930
b11000001 '
b0100001010100001 (
1,
#1931
1-
#1934
0-
#1935
0,
#1937
1-
#1940
b11000010 '
b0000000000000010 (
1,
0-
#1943
1-
#1945
0,
#1946
0-
#1949
1-
#1950
b11000011 '
b0001001000001011 (
1,
#1952
0-
#1955
0,
1-
#1958
0-
#1960
b11000100 '
b1010110111111110 (
1,
#1961
1-
#1964
0-
#1965
0,
#1967
1-
#1970
b11000101 '
b1100101101000101 (
1,
0-
#1973
1-
#1975
0,
#1976
0-
#1979
1-
#1980
b11000110 '
b1101000011111000 (
1,
#1982
0-
#1985
0,
1-
#1988
0-
#1990
b11000111 '
b1010100011111001 (
1,
#1991
1-
#1994
0-
#1995
0,
#1997
1-
#2000
b11001000 '
b1101000010000001 (
1,
0-
#2003
1-
#2005
0,
#2006
0-
#2009
1-
#2010
b11001001 '
b0101110100011110 (
1,
#2012
0-
#2015
0,
1-
#2018
0-
#2020
b11001010 '
b1001110110001010 (
1,
#2021
1-
#2024
0-
#2025
0,
#2027
1-
#2030
b11001011 '
b1111000111101101 (
1,
0-
#2033
1-
#2035
0,
#2036
0-
#2039
1-
#2040
b11001100 '
b0010011101111100 (
1,
#2042
0-
#2045
0,
1-
#2048
0-
#2050
b11001101 '
b0011111001001100 (
1,
#2051
1-
#2054
0-
#2055
0,
#2057
1-
#2060
b11001110 '
b0101001111101100 (
1,
0-
#2063
1-
#2065
0,
#2066
0-
#2069
1-
#2070
b11001111 '
b1010111110000000 (
1,
#2072
0-
#2075
0,
1-
#2078
0-
#2080
b11010000 '
b0001000110010011 (
1,
#2081
1-
#2084
0-
#2085
0,
#2087
1-
#2090
b11010001 '
b0111011100100000 (
1,
0-
#2093
1-
#2095
0,
#2096
0-
#2099
1-
#2100
b11010010 '
b1111111101001010 (
1,
#2102
0-
#2105
0,
1-
#2108
0-
#2110
b11010011 '
b0010001010111001 (
1,
#2111
1-
#2114
0-
#2115
0,
#2117
1-
#2120
b11010100 '
b1010000011101110 (
1,
0-
#2123
1-
#2125
0,
#2126
0-
#2129
1-
#2130
b11010101 '
b1010110000000110 (
1,
#2132
0-
#2135
0,
1-
#2138
0-
#2140
b11010110 '
b1000101011001111 (
1,
#2141
1-
#2144
0-
#2145
0,
#2147
1-
#2150
b11010111 '
b0110000011100010 (
1,
0-
#2153
1-
#2155
0,
#2156
0-
#2159
1-
#2160
b11011000 '
b0011010110110000 (
1,
#2162
0-
#2165
0,
1-
#2168
0-
#2170
b11011001 '
b0110001101001111 (
1,
#2171
1-
#2174
0-
#2175
0,
#2177
1-
#2180
b11011010 '
b0110010100000100 (
1,
0-
#2183
1-
#2185
0,
#2186
0-
#2189
1-
#2190
b11011011 '
b0011001000101000 (
1,
#2192
0-
#2195
0,
1-
#2198
0-
#2200
b11011100 '
b0111110100010000 (
1,
#2201
1-
#2204
0-
#2205
0,
#2207
1-
#2210
b11011101 '
b0000111010111011 (
1,
0-
#2213
1-
#2215
0,
#2216
0-
#2219
1-
#2220
b11011110 '
b1001010010110110 (
1,
#2222
0-
#2225
0,
1-
#2228
0-
#2230
b11011111 '
b1010111100101001 (
1,
#2231
1-
#2234
0-
#2235
0,
#2237
1-
#2240
b11100000 '
b0001100000101111 (
1,
0-
#2243
1-
#2245
0,
#2246
0-
#2249
1-
#2250
b11100001 '
b1100000111110011 (
1,
#2252
0-
#2255
0,
1-
#2258
0-
#2260
b11100010 '
b1001011000110111 (
1,
#2261
1-
#2264
0-
#2265
0,
#2267
1-
#2270
b11100011 '
b0000110011111101 (
1,
0-
#2273
1-
#2275
0,
#2276
0-
#2279
1-
#2280
b11100100 '
b0001010011011100 (
1,
#2282
0-
#2285
0,
1-
#2288
0-
#2290
b11100101 '
b0110001000011010 (
1,
#2291
1-
#2294
0-
#2295
0,
#2297
1-
#2300
b11100110 '
b0110101011101001 (
1,
0-
#2303
1-
#2305
0,
#2306
0-
#2309
1-
#2310
b11100111 '
b1101011111011000 (
1,
#2312
0-
#2315
0,
1-
#2318
0-
#2320
b11101000 '
b1111110000100100 (
1,
#2321
1-
#2324
0-
#2325
0,
#2327
1-
#2330
b11101001 '
b0110001100101100 (
1,
0-
#2333
1-
#2335
0,
#2336
0-
#2339
1-
#2340
b11101010 '
b1100010001100001 (
1,
#2342
0-
#2345
0,
1-
#2348
0-
#2350
b11101011 '
b0001001000001011 (
1,
#2351
1-
#2354
0-
#2355
0,
#2357
1-
#2360
b11101100 '
b1101011110010100 (
1,
0-
#2363
1-
#2365
0,
#2366
0-
#2369
1-
#2370
b11101101 '
b1110111010010010 (
1,
#2372
0-
#2375
0,
1-
#2378
0-
#2380
b11101110 '
b1111001110010110 (
1,
#2381
1-
#2384
0-
#2385
0,
#2387
1-
#2390
b11101111 '
b1011101011101001 (
1,
0-
#2393
1-
#2395
0,
#2396
0-
#2399
1-
#2400
b11110000 '
b0101010000011001 (
1,
#2402
0-
#2405
0,
1-
#2408
0-
#2410
b11110001 '
b1110111101001010 (
1,
#2411
1-
#2414
0-
#2415
0,
#2417
1-
#2420
b11110010 '
b0000101010101001 (
1,
0-
#2423
1-
#2425
0,
#2426
0-
#2429
1-
#2430
b11110011 '
b0111110001001101 (
1,
#2432
0-
#2435
0,
1-
#2438
0-
#2440
b11110100 '
b0101000101100110 (
1,
#2441
1-
#2444
0-
#2445
0,
#2447
1-
#2450
b11110101 '
b1101101101001110 (
1,
0-
#2453
1-
#2455
0,
#2456
0-
#2459
1-
#2460
b11110110 '
b0110100000011001 (
1,
#2462
0-
#2465
0,
1-
#2468
0-
#2470
b11110111 '
b0010000100101000 (
1,
#2471
1-
#2474
0-
#2475
0,
#2477
1-
#2480
b11111000 '
b0100010000111011 (
1,
0-
#2483
1-
#2485
0,
#2486
0-
#2489
1-
#2490
b11111001 '
b1100110001001101 (
1,
#2492
0-
#2495
0,
1-
#2498
0-
#2500
b11111010 '
b0001110000000011 (
1,
#2501
1-
#2504
0-
#2505
0,
#2507
1-
#2510
b11111011 '
b1110000101001101 (
1,
0-
#2513
1-
#2515
0,
#2516
0-
#2519
1-
#2520
b11111100 '
b1111100110110101 (
1,
#2522
0-
#2525
0,
1-
#2528
0-
#2530
b11111101 '
b0011101011010101 (
1,
#2531
1-
#2534
0-
#2535
0,
#2537
1-
#2540
b11111110 '
b0110011001101111 (
1,
0-
#2543
1-
#2545
0,
#2546
0-
#2549
1-
#2550
b11111111 '
b0000000101100111 (
1,
#2552
0-
#2555
0,
1-
#2558
0-
#2560
0&
1)
1,
#2561
1#
0$
0)
1-
#2564
0-
#2565
0,
#2567
1%
1-
b0000110000011001 /
b00000001 0
#2570
1,
0-
#2573
b0000110000011001 +
1-
b1011001001111011 /
b00000010 0
b0000110000011001 2
13
#2575
0,
#2576
0-
#2579
b1011111010010100 +
1-
b0111011111100011 /
b00000011 0
b1011111010010100 2
#2580
1,
#2582
0-
#2585
b0011011001110111 +
0,
1-
b1111001110001011 /
b00000100 0
b0011011001110111 2
#2588
0-
#2590
1,
#2591
b0010101000000010 +
1-
b0000111000001101 /
b00000101 0
b0010101000000010 2
#2594
0-
#2595
0,
#2597
b0011100000001111 +
1-
b0011010000000000 /
b00000110 0
b0011100000001111 2
#2600
1,
0-
#2603
b0110110000001111 +
1-
b0011010001111100 /
b00000111 0
b0110110000001111 2
#2605
0,
#2606
0-
#2609
b1010000010001011 +
1-
b0000001001001000 /
b00001000 0
b1010000010001011 2
#2610
1,
#2612
0-
#2615
b1010001011010011 +
0,
1-
b0001010011110011 /
b00001001 0
b1010001011010011 2
#2618
0-
#2620
1,
#2621
b1011011111000110 +
1-
b1110100011111111 /
b00001010 0
b1011011111000110 2
#2624
0-
#2625
0,
#2627
b1010000011000101 +
1-
b1001010010110110 /
b00001011 0
b1010000011000101 2
#2630
1,
0-
#2633
b0011010101111011 +
1-
b1100001111010110 /
b00001100 0
b0011010101111011 2
#2635
0,
#2636
0-
#2639
b1111100101010001 +
1-
b0111110100010000 /
b00001101 0
b1111100101010001 2
#2640
1,
#2642
0-
#2645
b0111011001100001 +
0,
1-
b0101111100000010 /
b00001110 0
b0111011001100001 2
#2648
0-
#2650
1,
#2651
b1101010101100011 +
1-
b1011001110011001 /
b00001111 0
b1101010101100011 2
#2654
0-
#2655
0,
#2657
b1000100011111100 +
1-
b1011110101110101 /
b00010000 0
b1000100011111100 2
#2660
1,
0-
#2663
b0100011001110001 +
1-
b1001110011001101 /
b00010001 0
b0100011001110001 2
#2665
0,
#2666
0-
#2669
b1110001100111110 +
1-
b1100101101101000 /
b00010010 0
b1110001100111110 2
#2670
1,
#2672
0-
#2675
b1010111010100110 +
0,
1-
b1110010010000001 /
b00010011 0
b1010111010100110 2
#2678
0-
#2680
1,
#2681
b1001001100100111 +
1-
b1000011000110111 /
b00010100 0
b1001001100100111 2
#2684
0-
#2685
0,
#2687
b0001100101011110 +
1-
b1110101011101010 /
b00010101 0
b0001100101011110 2
#2690
1,
0-
#2693
b0000010001001000 +
1-
b0011111100111110 /
b00010110 0
b0000010001001000 2
#2695
0,
#2696
0-
#2699
b0100001110000110 +
1-
b0111000000100011 /
b00010111 0
b0100001110000110 2
#2700
1,
#2702
0-
