waves/StreamUnit/test.vcd
$version Generated by VerilatedVcd $end
$date mar. 19 avril 2022 17:06:06 $end
$timescale 1ps $end

 $scope module TOP $end
  $var wire  1 2 clk $end
  $var wire  8 + io_cmdA_payload [7:0] $end
  $var wire  1 * io_cmdA_ready $end
  $var wire  1 ) io_cmdA_valid $end
  $var wire 32 . io_cmdB_payload [31:0] $end
  $var wire  1 - io_cmdB_ready $end
  $var wire  1 , io_cmdB_valid $end
  $var wire  8 ' io_memWrite_payload_address [7:0] $end
  $var wire 32 ( io_memWrite_payload_data [31:0] $end
  $var wire  1 & io_memWrite_valid $end
  $var wire 32 1 io_rsp_payload [31:0] $end
  $var wire  1 0 io_rsp_ready $end
  $var wire  1 / io_rsp_valid $end
  $var wire  1 3 reset $end
  $scope module StreamUnit $end
   $var wire  1 2 clk $end
   $var wire  1 # dataStream_isFree $end
   $var wire 32 6 dataStream_payload [31:0] $end
   $var wire  1 $ dataStream_ready $end
   $var wire  1 5 dataStream_valid $end
   $var wire  8 + io_cmdA_payload [7:0] $end
   $var wire  1 # io_cmdA_ready $end
   $var wire  1 ) io_cmdA_valid $end
   $var wire 32 . io_cmdB_payload [31:0] $end
   $var wire  1 $ io_cmdB_ready $end
   $var wire  1 , io_cmdB_valid $end
   $var wire  8 ' io_memWrite_payload_address [7:0] $end
   $var wire 32 ( io_memWrite_payload_data [31:0] $end
   $var wire  1 & io_memWrite_valid $end
   $var wire 32 4 io_rsp_payload [31:0] $end
   $var wire  1 0 io_rsp_ready $end
   $var wire  1 % io_rsp_valid $end
   $var wire  1 3 reset $end
  $upscope $end
 $upscope $end
$enddefinitions $end


#0
1#
0$
0%
1&
b00000000 '
b01011000110011101000111011000011 (
0)
1*
b01001010 +
0,
0-
b10100010001000101100101001011110 .
0/
00
b00110000100100001100101100010000 1
02
13
b00110000100100001100101100010000 4
05
b10010010101100100000000101001110 6
#160
03
#170
b00000001 '
b10110010011110111101000100010110 (
b00000011010110011110000101101110 1
12
b00000011010110011110000101101110 4
b10100001011110110010101100110000 6
#175
02
#180
b00000010 '
b11110011100010110100001110110000 (
b11000101001101101010001110010011 .
b01100100010011011000100010100011 1
12
b01100100010011011000100010100011 4
#185
02
#190
b00000011 '
b00110100000000001011000111010000 (
b01111110010110110101001111101010 .
10
b11011111001000000111100011011010 1
12
b11011111001000000111100011011010 4
#195
02
#200
b00000100 '
b00000010010010000101101001010110 (
b11100110110010111010101011111111 .
b01000111101100001000000111001111 1
12
b01000111101100001000000111001111 4
#205
02
#210
b00000101 '
b11101000111111111011011100111100 (
b11001101100100100111001010000000 .
b01101100111010010101100110110000 1
12
b01101100111010010101100110110000 4
#215
02
#220
b00000110 '
b11000011110101100000010001010000 (
b00110000111101110110010001010000 .
b10010001100011000100111101100000 1
12
b10010001100011000100111101100000 4
#225
02
#230
b00000111 '
b01011111000000101100000110010101 (
b00110011110010110000111111111100 .
b10010010101100000010010011001100 1
12
b10010010101100000010010011001100 4
#235
02
#240
b00001000 '
b10111101011101010000011111111001 (
b10111111 +
b00001100101001110011110101101110 .
b10101101110111000001011001011110 1
12
b10101101110111000001011001011110 4
#245
02
#250
b00001001 '
b11001011011010000100101101000001 (
b11110010 +
b11011111001101100100110001101111 .
00
b01111000000110010111010011011010 1
12
b01111000000110010111010011011010 4
b10100111001011110011100010110101 6
#255
02
#260
b00001010 '
b10000110001101110010001001010101 (
b01011101 +
b01101001100100011001010011101010 .
10
b11101011000111100001111011011001 1
12
b11101011000111100001111011011001 4
b10000010100011111000101000110011 6
#265
02
#270
b00001011 '
b00111111001111100111011101011000 (
b01111100 +
b11001011111000001111110011101000 .
b01010100000010011001111101001011 1
12
b01010100000010011001111101001011 4
b10011111111010010110001110100011 6
#275
02
#280
b00001100 '
b11011011111010010010001100110000 (
b00000110 +
b00110000010101000011100010101001 .
b10010011110101000001110011000101 1
12
b10010011110101000001110011000101 4
b10100011100000000010010001101100 6
#285
02
#290
b00001101 '
b00111101111000100000010001100110 (
b10001101 +
b00001111110101111001011111101101 .
00
b11001100000000011001001110111101 1
12
b11001100000000011001001110111101 4
b11000011110101100000010001010000 6
#295
02
#300
b00001110 '
b01111001010000000010011110000111 (
b01000100 +
b01011101000010010010101100000100 .
10
b01001000100110000001110011000101 1
12
b01001000100110000001110011000101 4
b00010101100100010011011111000001 6
#305
02
#310
b00001111 '
b10001111010100110010011101110000 (
b01010000 +
b00101001000000000111011111010011 .
00
b11100110110100000001001011100000 1
12
b11100110110100000001001011100000 4
b11001111110100000110010100110011 6
#315
02
#320
b00010000 '
b10011100101101011001011000100111 (
b01111001 +
b01000101011100110100100101100010 .
b01101110000001101111000110101110 1
12
b01101110000001101111000110101110 4
b00101011011101011011100011001100 6
#325
02
#330
b00010001 '
b00110101110011101001001100110101 (
b00100010 +
b11111010111010100010111110101100 .
b11010011100000000010010011110010 1
12
b11010011100000000010010011110010 4
b00101001011010100000101101011110 6
#335
02
#340
b00010010 '
b01001000000100111100001010010100 (
b10000010 +
b01001110011010001010000110001010 .
10
b10101011101111111101001000001001 1
12
b10101011101111111101001000001001 4
b11100101110101110111001110000011 6
#345
02
#350
b00010011 '
b01100010010110010010111110110101 (
b11111100 +
b10010001011001111001100011001110 .
00
b11110101011111001010010011101010 1
12
b11110101011111001010010011101010 4
b01100100000110110011110000100100 6
#355
02
#360
b00010100 '
b10100100011011110101101000101011 (
b10101001 +
b00000101100111101000001001111100 .
b01000100001100101100111000111110 1
12
b01000100001100101100111000111110 4
b01000001101011000100110001000010 6
#365
02
#370
b00010101 '
b01110001110100010100010111110110 (
b00000111 +
b01110111100011110100111000010110 .
10
b11001110111011011111111101100100 1
12
b11001110111011011111111101100100 4
b10111001011000101011000101110010 6
#375
02
#380
b00010110 '
b10110011011001111111111110001010 (
b01001010 +
b11110010010010010111001101001111 .
00
b10101101010010111011001011011010 1
12
b10101101010010111011001011011010 4
b01011111000000101100000110010101 6
#385
02
#390
b00010111 '
b10111100000000000010010000000101 (
b10010110 +
b00100110100000001011011101010001 .
b10000111111110111001110001100001 1
12
b10000111111110111001110001100001 4
b10100001011110110010101100110000 6
#395
02
#400
b00011000 '
b00111111010011001011100000101111 (
b10010000 +
b11011011111010010100001011101000 .
b10001001000010100110110010010111 1
12
b10001001000010100110110010010111 4
b01010010111000110010111001111111 6
#405
02
#410
b00011001 '
b11101100010100110111110100111010 (
b11100001 +
b10001110100100001011111001101100 .
b01100001110011000101001111100010 1
12
b01100001110011000101001111100010 4
b11101111010111001110110110001110 6
#415
02
#420
b00011010 '
b01100110011001110001000001011111 (
b00101100 +
b00001111100001110100110101111110 .
10
b01011000111001111001011110011000 1
12
b01011000111001111001011110011000 4
b01010111011000001101101011100110 6
#425
02
#430
b00011011 '
b11011000100101100000101011000000 (
b00101101 +
b11100110001000010001100101100100 .
00
b11001110011001111100001110101111 1
12
b11001110011001111100001110101111 4
b00101000010001101101101011001011 6
#435
02
#440
b00011100 '
b11100100011110100001100101001000 (
b00000110 +
b11111110001011101111000101000110 .
b11011110001011101000111011100011 1
12
b11011110001011101000111011100011 4
b00100000000000000111111110100101 6
#445
02
#450
b00011101 '
b00111001011100110011000001010101 (
b01001011 +
b10110001110001101000111100000110 .
b01110010000100001000101101010110 1
12
b01110010000100001000101101010110 4
b11000011110101100000010001010000 6
#455
02
#460
b00011110 '
b01111110101100001010010101101001 (
b00100111 +
b01001100010100101000100111001010 .
b11101111110111101101101000111111 1
12
b11101111110111101101101000111111 4
b10100011100011000101001111110101 6
#465
02
#470
b00011111 '
b00110011000010011010100101001101 (
b10010001 +
b01110000001010110001000111111111 .
10
b10101001001001110010100001000111 1
12
b10101001001001110010100001000111 4
b11011001000011000011100110111000 6
#475
02
#480
b00100000 '
b01110100000010000110011100110001 (
b01110101 +
b00011010110000110011100110101101 .
b10000001011111111101110001000000 1
12
b10000001011111111101110001000000 4
b10011011101111001110010111101101 6
#485
02
#490
b00100001 '
b01101101100011011000000111011011 (
b10111010 +
b00100000101010001100110011010100 .
b00100100011111111110110101001100 1
12
b00100100011111111110110101001100 4
b00000100110101110010000110011000 6
#495
02
#500
b00100010 '
b00110100111111011101010111100110 (
b11111101 +
b11000100111100001101110011100111 .
b10101111000100011111000101111101 1
12
b10101111000100011111000101111101 4
b01101011111000010010110110011010 6
#505
02
#510
b00100011 '
b01000111001110011110000010010011 (
b01010100 +
b01010100001000101001001010101111 .
00
b00110011110010010110110001011000 1
12
b00110011110010010110110001011000 4
b01100111111010111111111011110111 6
#515
02
#520
b00100100 '
b10110011000101101111110011001000 (
b11010000 +
b01011010100101111100000111000111 .
10
b01010000101011110000011001111011 1
12
b01010000101011110000011001111011 4
b00001010001110001100011110111100 6
#525
02
#530
b00100101 '
b11011101110101110110010000101010 (
b10100000 +
b10001001110011100110110000101001 .
b01011011011000011001100011011001 1
12
b01011011011000011001100011011001 4
b11010010101011111111010011110000 6
#535
02
#540
b00100110 '
b10000010001010011001100001110110 (
b11001100 +
b00001100001100011100110100111001 .
00
b01001011101000001110101100100000 1
12
b01001011101000001110101100100000 4
b01000111100100010010011000011001 6
#545
02
#550
b00100111 '
b11000111001001000001100110000000 (
b00010001 +
b00101011000010000111010001111010 .
b11101100101110001010011111000001 1
12
b11101100101110001010011111000001 4
b11000111101100001101001110111011 6
#555
02
#560
b00101000 '
b10011100000110110010011010001111 (
b11000010 +
b01010110111010111000011100100001 .
10
b01100011001001010001010000010100 1
12
b01100011001001010001010000010100 4
b00110101110011101001001100110101 6
#565
02
#570
b00101001 '
b00001000101101100100110111100000 (
b11001111 +
b10001100001010011100001010111000 .
b10110010100101100101011111010100 1
12
b10110010100101100101011111010100 4
b00111110101111111001010101101100 6
#575
02
#580
b00101010 '
b10010010100111111100101110011011 (
b11011010 +
b11110000001111101100010111001011 .
00
b10011110010001111100001011110010 1
12
b10011110010001111100001011110010 4
b01101110011110010000011100111001 6
#585
02
#590
b00101011 '
b01111001110000111100000110000110 (
b11101011 +
b00101010011110011111110000000101 .
10
b00111001010101001110100010101000 1
12
b00111001010101001110100010101000 4
b00010011001011010001010010101101 6
#595
02
#600
b00101100 '
b00110011011001110011001100101100 (
b00100011 +
b11000001111011000101101111000000 .
b01011111000101000101110000000011 1
12
b01011111000101000101110000000011 4
b10011110111110000000011111000011 6
#605
02
#610
b00101101 '
b00110111110010101111111001100001 (
b00100001 +
b11011110111001100011011011011111 .
00
b10011001110111111101011001001100 1
12
b10011001110111111101011001001100 4
b01000111001110011110000010010011 6
#615
02
#620
b00101110 '
b01011000011101001100111001000000 (
b10110000 +
b10100111000001001101100110000010 .
b11001010100010010101100001011001 1
12
b11001010100010010101100001011001 4
b01101101100011011000000111011011 6
#625
02
#630
b00101111 '
b01000010101101001101011100011001 (
b01011001 +
b00011001110111110101110011110100 .
b00101101010100101100100001101001 1
12
b00101101010100101100100001101001 4
b00110100100011011001010010011101 6
#635
02
#640
b00110000 '
b10110010010100110001001111101001 (
b10110000 +
b11110001100110110011010011111000 .
10
b10001100111011110010101110001100 1
12
b10001100111011110010101110001100 4
b01111101011101000001111101110100 6
#645
02
#650
b00110001 '
b11111001111000000101001001010010 (
b01010110 +
b00000001001000100000100000100011 .
00
b00110101101011111001110010111110 1
12
b00110101101011111001110010111110 4
b00110100100011011001010010011101 6
#655
02
#660
b00110010 '
b10010010101001111010100000101111 (
b01101010 +
b11111100010000001000101010010011 .
10
b10100000110010110000000101100111 1
12
b10100000110010110000000101100111 4
b01011100100010111000101111110100 6
#665
02
#670
b00110011 '
b11100001111010111000011000110010 (
b00100001 +
b01010000101001010100000010010010 .
00
b01011111110111001110011100010011 1
12
b01011111110111001110011100010011 4
b00001111011110011010011110000001 6
#675
02
#680
b00110100 '
b00000101101010001000110100110101 (
b11111100 +
b11111110000000000100000001111010 .
b10010011100011011100000110100001 1
12
b10010011100011011100000110100001 4
b01101101100011011000000111011011 6
#685
02
#690
b00110101 '
b01100111001100000010100000100001 (
b00111101 +
b10101100100110100101010011111101 .
10
b11101101001101100001100010111111 1
12
b11101101001101100001100010111111 4
b01000001101011000100110001000010 6
#695
02
#700
b00110110 '
b00101110010100001100001010011001 (
b01001101 +
b00110100011100100010101000110011 .
00
b11101001111010110000100110010101 1
12
b11101001111010110000100110010101 4
b11011101100110010010001110100110 6
#705
02
#710
b00110111 '
b11010011000100101101010011001111 (
b10100011 +
b01011000010100101001001110110010 .
b01001100101000001111010000011110 1
12
b01001100101000001111010000011110 4
b00010100111100100110011110101100 6
#715
02
#720
b00111000 '
b11001110001101001111011100100001 (
b10100001 +
b01101101100010111111001110101100 .
10
b10111111100111101001011010100110 1
12
b10111111100111101001011010100110 4
b11010010000101010110010100001010 6
#725
02
#730
b00111001 '
b00111110101100000101010001111010 (
b00010110 +
b01001100111111101100000111010100 .
b11011100001111011100110001101000 1
12
b11011100001111011100110001101000 4
b10010000110000110000110110111100 6
#735
02
#740
b00111010 '
b11111100101111110011000010010011 (
b10011011 +
b10011011111100111010010010001110 .
b00101000100101000101101100000100 1
12
b00101000100101000101101100000100 4
b10110011011001111111111110001010 6
#745
02
#750
b00111011 '
b01010100011001000101111101110000 (
b01011000 +
b11101110000001010001111111010100 .
00
b00001010101010101111101110111010 1
12
b00001010101010101111101110111010 4
b11100100101011111110010001101110 6
#755
02
#760
b00111100 '
b01001100101000101000110111100011 (
b10111011 +
b01100110101001101000100100111101 .
b10101110001100011001111000110101 1
12
b10101110001100011001111000110101 4
b11001000100101110001011100001000 6
#765
02
#770
b00111101 '
b01001111010110011010011011010011 (
b00110111 +
b01000010010001010110010101001010 .
10
b01101110100101001001110000101110 1
12
b01101110100101001001110000101110 4
b00101100110100011111100101100100 6
#775
02
#780
b00111110 '
b01010111110001101000011110010011 (
b10100011 +
b00000100010011101100110011111010 .
b11010111010111000001100000110101 1
12
b11010111010111000001100000110101 4
b11010011000100101101010011001111 6
#785
02
#790
b00111111 '
b00000101000010110010010110011100 (
b10011010 +
b11100111101111001011001110001100 .
00
b00110101101010011101011010000110 1
12
b00110101101010011101011010000110 4
b11010010000101010110010100001010 6
#795
02
#800
b01000000 '
b11100011111110110101001001010110 (
b10010111 +
b01101010001001111010000011111001 .
10
b10010011100100101110001010100011 1
12
b10010011100100101110001010100011 4
b11111001101101010100001001011010 6
#805
02
#810
b01000001 '
b01001100100110101111110111100001 (
b11101110 +
b00101100001111101101110110111011 .
b01100010110001011000010011111101 1
12
b01100010110001011000010011111101 4
b01001110111110110101100101000110 6
#815
02
#820
b01000010 '
b01110011101111110100011111110111 (
b00011101 +
b10110100000011010111111001101101 .
b10110011101011001000001011000110 1
12
b10110011101011001000001011000110 4
b00000111101000011111110010101011 6
#825
02
#830
b01000011 '
b10111011011000110110011001011010 (
b10100101 +
b00110010000111011101111000100000 .
00
b00001011011011101110111001110101 1
12
b00001011011011101110111001110101 4
b00111001011100110011000001010101 6
#835
02
#840
b01000100 '
b00101000011101110111101001111001 (
b10101000 +
b11001001111110111111010111011010 .
10
b10111000100011000011000101111001 1
12
b10111000100011000011000101111001 4
b01110001011101111100010010100011 6
#845
02
#850
b01000101 '
b00100001011010100110110000100001 (
b10100111 +
b01000010000101011011010000000011 .
00
b11010110101011101010001101101111 1
12
b11010110101011101010001101101111 4
b10010100101110110001011101101100 6
#855
02
#860
b01000110 '
b11001100111110111101010101111110 (
b10110100 +
b11001010110010110010010000101100 .
b00010010001010100010110000000101 1
12
b00010010001010100010110000000101 4
b11011000111000010000100000101001 6
#865
02
#870
b01000111 '
b00101011101010011000110010111001 (
b11011110 +
b11110110001110101000001001110000 .
10
b10111011010110010000101010101110 1
12
b10111011010110010000101010101110 4
b01001101011000111000100011011110 6
#875
02
#880
b01001000 '
b11000010011110010111000111101100 (
b10111011 +
b01100111110111110101111001011111 .
00
b01010010110011100011100101110100 1
12
b01010010110011100011100101110100 4
b00110101000100010110011100101011 6
#885
02
#890
b01001001 '
b00010001101001100110110001010000 (
b01001111 +
b01000110100100110110111110000000 .
10
b01101010010000101001011011100100 1
12
b01101010010000101001011011100100 4
b00101100110100011111100101100100 6
#895
02
#900
b01001010 '
b01010100101100111111111111001101 (
b11100100 +
b10101100100100010111111011000100 .
00
b11111110100100000110000101111010 1
12
b11111110100100000110000101111010 4
b01010010000000010001111110111110 6
#905
02
#910
b01001011 '
b10110111111010100010110001001000 (
b01010100 +
b10000011101101111100010100011011 .
10
b01111000111011000100101010000101 1
12
b01111000111011000100101010000101 4
b11111011010110111000111110011110 6
#915
02
#920
b01001100 '
b11000111110110010110101001110110 (
b01101100 +
b00000100000001011000101100100001 .
00
b00001110001111010100110010011101 1
12
b00001110001111010100110010011101 4
b00001010001110001100011110111100 6
#925
02
#930
b01001101 '
b01111101101110010010010111110011 (
b11110111 +
b11100011001110001111111101011000 .
10
b11101000101110001101011010100110 1
12
b11101000101110001101011010100110 4
b00001011100000000010100111111110 6
#935
02
#940
b01001110 '
b10111111101010010001101011101011 (
b00000111 +
b01011000110000001011100100111111 .
00
b01111010010011001010010011011101 1
12
b01111010010011001010010011011101 4
b00100010100011000001110111100010 6
#945
02
#950
b01001111 '
b01001010010001010000110110011110 (
b10000100 +
b11100101100101100001100111011111 .
10
b10111010100101001101100001001010 1
12
b10111010100101001101100001001010 4
b01011111000000101100000110010101 6
#955
02
#960
b01010000 '
b10001111111000100111110010000001 (
b11011000 +
b00110001000101000011011110100100 .
00
b01011000110000101011100111001000 1
12
b01011000110000101011100111001000 4
b01101001110101101000111001101100 6
#965
02
#970
b01010001 '
b11101000101011111100000111010000 (
b10111101 +
b10011101101011110101110011111100 .
10
b10111001000011100000111000110101 1
12
b10111001000011100000111000110101 4
b00100100101000010101001011001001 6
#975
02
#980
b01010010 '
b10011111000001001010011111000101 (
b10101010 +
b01100010001011010010001010010000 .
b10000100010111110000110101011111 1
12
b10000100010111110000110101011111 4
b11100110011100100010111111001111 6
#985
02
#990
b01010011 '
b01101010110101010100101011010011 (
b01100001 +
b11011110001100010111010001000001 .
b00100001000111011110000100000011 1
12
b00100001000111011110000100000011 4
b11111111001011001001010101000010 6
#995
02
#1000
b01010100 '
b01110000101000110101011110011100 (
b10010011 +
b01000100001011011100000101101011 .
b01111011111011011111101111000001 1
12
b01111011111011011111101111000001 4
b00111111110000000011101010101010 6
#1005
02
#1010
b01010101 '
b11110101001101111100111001110011 (
b11100111 +
b10011110000100001000101111101100 .
00
b01010101111101100011011111010011 1
12
b01010101111101100011011111010011 4
b11001011111001101011110000111111 6
#1015
02
#1020
b01010110 '
b10111010001100111000110010101011 (
b00100110 +
b10100011111110110001111101001111 .
b10001101000100010000010110000011 1
12
b10001101000100010000010110000011 4
b00101110111010100001101011001100 6
#1025
02
#1030
b01010111 '
b11011010110100000111110000000101 (
b10010011 +
b00111101000001001101111101101110 .
10
b10111111001011010100011100011000 1
12
b10111111001011010100011100011000 4
b10000010001010011001100001110110 6
#1035
02
#1040
b01011000 '
b01000110011101001000001011111000 (
b11011100 +
b10100011001110110101100101010000 .
b01101000110111011110010101101111 1
12
b01101000110111011110010101101111 4
b11001011111001101011110000111111 6
#1045
02
#1050
b01011001 '
b01101010001101001011010010101011 (
b01010001 +
b10100110010010000101101010111101 .
00
b01111001000100101011011001111011 1
12
b01111001000100101011011001111011 4
b11011111010110101110110011000110 6
#1055
02
#1060
b01011010 '
b01110110101111111101110111010001 (
b01101100 +
b01110001010101000010011110101011 .
b10011001111110111110011001111011 1
12
b10011001111110111110011001111011 4
b11101000101011111100000111010000 6
#1065
02
#1070
b01011011 '
b11011110101011101111001111010101 (
b11111111 +
b00101101100101100000000101100001 .
10
b00100110000101100010100010011111 1
12
b00100110000101100010100010011111 4
b00001011100000000010100111111110 6
#1075
02
#1080
b01011100 '
b00100000110101100010110111101100 (
b00010000 +
b00110011011010100100001100010010 .
00
b01100100100111000111110001111010 1
12
b01100100100111000111110001111010 4
b01010111111101100011111101101000 6
#1085
02
#1090
b01011101 '
b11110011110111110011110000001010 (
b00001010 +
b11011100100011111000100101011001 .
b01000000001110100001111101111110 1
12
b01000000001110100001111101111110 4
b10011100101101011001011000100111 6
#1095
02
#1100
b01011110 '
b11111001011010110011010111001111 (
b00011111 +
b01011001100101011110010110011100 .
10
b11011111101000101100011111001001 1
12
b11011111101000101100011111001001 4
b10000110001101110010001001010101 6
#1105
02
#1110
b01011111 '
b00001001011011110000101111100111 (
b10001000 +
b11011101111010100100110101000111 .
00
b11101110111000111110010000001010 1
12
b11101110111000111110010000001010 4
b00110011000010011010100101001101 6
#1115
02
#1120
b01100000 '
b11110010000001111001000001110010 (
b01011110 +
b01011100001001111101011100101111 .
10
b01000010100100010010000111101001 1
12
b01000010100100010010000111101001 4
b00011110101101101111011011000110 6
#1125
02
#1130
b01100001 '
b01000010101000010001111101101000 (
b00111010 +
b11111010000010110011100010000110 .
b00000011011000000000110101001001 1
12
b00000011011000000000110101001001 4
b11111001011010110011010111001111 6
#1135
02
#1140
b01100010 '
b00010010000010111001111000100010 (
b11101001 +
b00111111010101101100011101011001 .
b11000011111010011111011111001010 1
12
b11000011111010011111011111001010 4
b11111100101111110011000010010011 6
#1145
02
#1150
b01100011 '
b11001011010001011000000101100110 (
b00010101 +
b00001011010010001110100100011111 .
b10001100111100111101011100100110 1
12
b10001100111100111101011100100110 4
b10000111101110110011111000111001 6
#1155
02
#1160
b01100100 '
b10101000111110011101101110100111 (
b10111001 +
b11001010000101000011101011110100 .
b10111011110001010111111100000010 1
12
b10111011110001010111111100000010 4
b01110001110100010100010111110110 6
#1165
02
#1170
b01100101 '
b01011101000111101011000101100000 (
b01000111 +
b10000100001001011100011010101010 .
b10100100011100000011111001010111 1
12
b10100100011100000011111001010111 4
b00100000010101011111100011111101 6
#1175
02
#1180
b01100110 '
b11110001111011010000011110101000 (
b00000111 +
b01010010110010011001101000001010 .
00
b01111001011000000001011010110011 1
12
b01111001011000000001011010110011 4
b00101011101010011000110010111001 6
#1185
02
#1190
b01100111 '
b00111110010011001110000101111101 (
b11010011 +
b00001001000100011000101010100101 .
10
b01010110000100110100101100110000 1
12
b01010110000100110100101100110000 4
b01011111000000101100000110010101 6
#1195
02
#1200
b01101000 '
b10101111100000001011101001001110 (
b00010010 +
b01111111101001000000001011010010 .
b10010011010110011100001000000110 1
12
b10010011010110011100001000000110 4
b11101100111111011100000011010100 6
#1205
02
#1210
b01101001 '
b01110111001000001001000011010001 (
b00111000 +
b10010000100001010111110111001101 .
b11011000100101101011111101011001 1
12
b11011000100101101011111101011001 4
b01001000000100111100001010010100 6
#1215
02
#1220
b01101010 '
b00100010101110010101001100101000 (
b00100110 +
b11110111111011000000000010111111 .
b00111001110110001111011110011110 1
12
b00111001110110001111011110011110 4
b11001110001101001111011100100001 6
#1225
02
#1230
b01101011 '
b10101100000001100000010111011111 (
b10111100 +
b01010110010110011100111101110001 .
00
b11010100011100000101011100000111 1
12
b11010100011100000101011100000111 4
b10000010001010011001100001110110 6
#1235
02
#1240
b01101100 '
b01100000111000100110000101001110 (
b11000111 +
b10101000101111010011001011110100 .
b01001001010001110010100101110000 1
12
b01001001010001110010100101110000 4
b11100001111110100001101110000100 6
#1245
02
#1250
b01101101 '
b01100011010011110110110101011110 (
b01011001 +
b00110001110110001011011011100000 .
b10111110100010110011001101111101 1
12
b10111110100010110011001101111101 4
b10001111010100111000010110011101 6
#1255
02
#1260
b01101110 '
b00110010001010001110100111001000 (
b01110010 +
b00001010110000011101101110100001 .
10
b01100000111101010110111100001010 1
12
b01100000111101010110111100001010 4
b01101010001101001011010010101011 6
#1265
02
#1270
b01101111 '
b00001110101110111010000100111111 (
b01011000 +
b11111111000011111101010001011100 .
00
b01011010001001011011111011110010 1
12
b01011010001001011011111011110010 4
b10100101001010100110101010101110 6
#1275
02
#1280
b01110000 '
b10101111001010010011000000110000 (
b01010111 +
b01100001110001000101001000001111 .
b00100111101100001101000011110111 1
12
b00100111101100001101000011110111 4
b01000110011101001000001011111000 6
#1285
02
#1290
b01110001 '
b11000001111100111101101111101111 (
b00011111 +
b10110100010001100101011000111100 .
b01101110100101100010101000111001 1
12
b01101110100101100010101000111001 4
b11011010110100000111110000000101 6
#1295
02
#1300
b01110010 '
b00001100111111011110010110010101 (
b11101100 +
b10101111111010011111001101100111 .
10
b10011100111000000101101000101010 1
12
b10011100111000000101101000101010 4
b00110011000010011010100101001101 6
#1305
02
#1310
b01110011 '
b01100010000110101101101111011001 (
b11000011 +
b11000011110100100001000000100011 .
b10110000100101101101011100100010 1
12
b10110000100101101101011100100010 4
b01110011010001001100011100000001 6
#1315
02
#1320
b01110100 '
b11010111110110001110000110100010 (
b01010111 +
b00110011100010101000001001111001 .
b11110011001010000001101100010000 1
12
b11110011001010000001101100010000 4
b11000000101000101001100101101001 6
#1325
02
#1330
b01110101 '
b01100011001011000011101100101110 (
b01001111 +
b11001100011011001100010101101101 .
00
b00010110101111001011100101101000 1
12
b00010110101111001011100101101000 4
b11011010110100000111110000000101 6
#1335
02
#1340
b01110110 '
b00010010000010111100100111111111 (
b11111100 +
b10100010010101100111110100001011 .
10
b11101000000100110111000010010101 1
12
b11101000000100110111000010010101 4
b01001010010001010000110110011110 6
#1345
02
#1350
b01110111 '
b11101110100100101111111111101000 (
b11101111 +
b01001011110000011011010101001110 .
00
b00001010011011011111100100001100 1
12
b00001010011011011111100100001100 4
b01000001101011000100110001000010 6
#1355
02
#1360
b01111000 '
b10111010111010010100101111110110 (
b10101010 +
b01100010100111011101010101111100 .
b10010010100010000101011111101110 1
12
b10010010100010000101011111101110 4
b11110000000101011000001010010010 6
#1365
02
#1370
b01111001 '
b11101111010010101010100000001011 (
b01011010 +
b01111000101110001100111000110001 .
10
b10000111100101000101101101110011 1
12
b10000111100101000101101101110011 4
b11111111001011001001010101000010 6
#1375
02
#1380
b01111010 '
b01111100010011011100110001011001 (
b01000111 +
b00000000001001100100100110111101 .
b01110110100110011001010001101100 1
12
b01110110100110011001010001101100 4
b01110110101111111101110111010001 6
#1385
02
#1390
b01111011 '
b11011011010011100011011000101101 (
b00101011 +
b10101100100011100001111101010011 .
b10000111001001111001001111101010 1
12
b10000111001001111001001111101010 4
b00101011101010011000110010111001 6
#1395
02
#1400
b01111100 '
b00100001001010001011000110100011 (
b11101100 +
b10000011111000010100110011101100 .
00
b11111010001000101000110101101010 1
12
b11111010001000101000110101101010 4
b01111001110000111100000110000110 6
#1405
02
#1410
b01111101 '
b11001100010011010000001000111001 (
b00001100 +
b10100011110000001111101010111100 .
b11010000100001000011110110111101 1
12
b11010000100001000011110110111101 4
b01110011010001001100011100000001 6
#1415
02
#1420
b01111110 '
b11100001010011011010110001011101 (
b11000011 +
b00010100110000011011011100011001 .
10
b11001111001010001001010000101001 1
12
b11001111001010001001010000101001 4
b11011011111010010010001100110000 6
#1425
02
#1430
b01111111 '
b00111010110101010101001001101111 (
b11100100 +
b00011010000101010000111011110111 .
b11011010101101111001011110011110 1
12
b11011010101101111001011110011110 4
b11000000101000101001100101101001 6
#1435
02
#1440
b10000000 '
b00000001011001111010000111000011 (
b00110000 +
b10110000010010100011111011111000 .
00
b01001011000100011011000101100110 1
12
b01001011000100011011000101100110 4
b11111011010110111000111110011110 6
#1445
02
#1450
b10000001 '
b01100011101000010000000010101110 (
b01100110 +
b01001100011110010101111100111110 .
b11111110001010100100110011010111 1
12
b11111110001010100100110011010111 4
b10110010010100110001001111101001 6
#1455
02
#1460
b10000010 '
b00100111010111010001110010100111 (
b00001001 +
b10110101101110001011001110010101 .
10
b01000100010101011011010000111101 1
12
b01000100010101011011010000111101 4
b11110001111011010000011110101000 6
#1465
02
#1470
b10000011 '
b01110110101100001010111111110101 (
b10101011 +
b00001111011101001011100111110101 .
b11000100000111001111001010110100 1
12
b11000100000111001111001010110100 4
b11001011011010000100101101000001 6
#1475
02
#1480
b10000100 '
b10011110000100000110100010010100 (
b11101011 +
b10000000011011010001000000111110 .
00
b00011010110000001100011001101001 1
12
b00011010110000001100011001101001 4
b10011010101011011101011001010111 6
#1485
02
#1490
b10000101 '
b01011111101001100101011000100111 (
b11001000 +
b10101111101111101111000010100111 .
10
b00110001010001101111011101100100 1
12
b00110001010001101111011101100100 4
b10011110111110000000011111000011 6
#1495
02
#1500
b10000110 '
b10000101011000111011101100110101 (
b11101010 +
b11111110101011010110101100111101 .
00
b11100100000010110011011100011000 1
12
b11100100000010110011011100011000 4
b00011010101001100101110000100101 6
#1505
02
#1510
b10000111 '
b01110110100110000001111000001110 (
b01110111 +
b01000010100100011111000111100011 .
b01011111000111110001101100010001 1
12
b01011111000111110001101100010001 4
b00011101100011101110101011110010 6
#1515
02
#1520
b10001000 '
b00100111000011000000111111110111 (
b00110000 +
b11110100011000110111100000100010 .
10
b00011010111100011000011111001010 1
12
b00011010111100011000011111001010 4
b11101110100100101111111111101000 6
#1525
02
#1530
b10001001 '
b00110100101000001110010110100001 (
b01010011 +
b01100011001010001100110010101001 .
b11010001011110111101111101000000 1
12
b11010001011110111101111101000000 4
b10110010010100110001001111101001 6
#1535
02
#1540
b10001010 '
b11010100010000111001100111101101 (
b01000110 +
b10100111000110010111000010100011 .
b11001101110011000011101001110000 1
12
b11001101110011000011101001110000 4
b01101010110101010100101011010011 6
#1545
02
#1550
b10001011 '
b00100000000000111101110010001001 (
b00101101 +
b11111000000111011110011001010000 .
00
b00110100111001100011001100101110 1
12
b00110100111001100011001100101110 4
b11001100111110111101010101111110 6
#1555
02
#1560
b10001100 '
b01100110000101101110111111110100 (
b00011101 +
b00001111110010101100001101100000 .
b00111000000000000011110100000001 1
12
b00111000000000000011110100000001 4
b00110111110010101111111001100001 6
#1565
02
