waves/FunctionUnit/test.vcd
$version Generated by VerilatedVcd $end
$date jeu. 07 avril 2022 18:31:03 $end
$timescale 1ps $end

 $scope module TOP $end
  $var wire  1 F clk $end
  $var wire  8 A io_cmd_payload [7:0] $end
  $var wire  1 @ io_cmd_valid $end
  $var wire  8 B io_valueA [7:0] $end
  $var wire 32 C io_valueB [31:0] $end
  $var wire 48 D io_valueC [47:0] $end
  $var wire  1 G reset $end
  $scope module FunctionUnit $end
   $var wire  1 F clk $end
   $var wire  8 A io_cmd_payload [7:0] $end
   $var wire  1 @ io_cmd_valid $end
   $var wire  8 B io_valueA [7:0] $end
   $var wire 32 C io_valueB [31:0] $end
   $var wire 48 D io_valueC [47:0] $end
   $var wire  1 % loadA_active $end
   $var wire  8 , loadA_buffer [7:0] $end
   $var wire  1 L loadA_counter_willClear $end
   $var wire  1 2 loadA_counter_willIncrement $end
   $var wire  1 2 loadA_counter_willOverflow $end
   $var wire  1 M loadA_counter_willOverflowIfInc $end
   $var wire  1 ( loadB_active $end
   $var wire 32 - loadB_buffer [31:0] $end
   $var wire  2 < loadB_counter_value [1:0] $end
   $var wire  2 H loadB_counter_valueNext [1:0] $end
   $var wire  1 L loadB_counter_willClear $end
   $var wire  1 6 loadB_counter_willIncrement $end
   $var wire  1 I loadB_counter_willOverflow $end
   $var wire  1 = loadB_counter_willOverflowIfInc $end
   $var wire  1 + loadC_active $end
   $var wire 48 . loadC_buffer [47:0] $end
   $var wire  3 > loadC_counter_value [2:0] $end
   $var wire  3 J loadC_counter_valueNext [2:0] $end
   $var wire  1 L loadC_counter_willClear $end
   $var wire  1 : loadC_counter_willIncrement $end
   $var wire  1 K loadC_counter_willOverflow $end
   $var wire  1 ? loadC_counter_willOverflowIfInc $end
   $var wire  1 G reset $end
   $var wire  4 # setA_counter [3:0] $end
   $var wire  1 0 setA_hit $end
   $var wire  4 & setB_counter [3:0] $end
   $var wire  1 4 setB_hit $end
   $var wire  4 ) setC_counter [3:0] $end
   $var wire  1 8 setC_hit $end
   $var wire  1 1 when_FunctionUnit_l24 $end
   $var wire  1 5 when_FunctionUnit_l24_1 $end
   $var wire  1 9 when_FunctionUnit_l24_2 $end
   $var wire  1 $ when_FunctionUnit_l25 $end
   $var wire  1 ' when_FunctionUnit_l25_1 $end
   $var wire  1 * when_FunctionUnit_l25_2 $end
   $var wire  1 3 when_FunctionUnit_l44 $end
   $var wire  1 7 when_FunctionUnit_l44_1 $end
   $var wire  1 ; when_FunctionUnit_l44_2 $end
  $upscope $end
 $upscope $end
$enddefinitions $end


#0
b0000 #
0$
0%
b0000 &
0'
0(
b0000 )
0*
0+
b10001111 ,
b10110001100011110110111001100001 -
b000100100100000011110100000010001001111011001101 .
00
01
02
03
04
05
06
07
08
09
0:
0;
b00 <
0=
b000 >
0?
0@
b00011001 A
b10001111 B
b10110001100011110110111001100001 C
b000100100100000011110100000010001001111011001101 D
0F
1G
b00 H
0I
b000 J
0K
0L
1M
#160
0G
#170
11
15
19
1@
b01110011 A
1F
#175
0F
#180
b0001 #
b0001 &
b0001 )
01
05
09
0@
b01101011 A
1F
#185
0F
#190
1F
#195
0F
#200
1F
#205
0F
#210
11
15
19
1@
b01100101 A
1F
#215
0F
#220
b0010 #
b0010 &
b0010 )
01
05
09
0@
b10111100 A
1F
#225
0F
#230
11
15
19
1@
b01110100 A
1F
#235
0F
#240
b0011 #
b0011 &
b0011 )
01
05
09
0@
b10010100 A
1F
#245
0F
#250
1F
#255
0F
#260
1F
#265
0F
#270
11
15
19
1@
b01010110 A
1F
#275
0F
#280
b0100 #
b0100 &
b0100 )
01
05
09
0@
b00100100 A
1F
#285
0F
#290
1F
#295
0F
#300
1F
#305
0F
#310
11
15
19
1@
b01100001 A
1F
#315
0F
#320
b0101 #
b0101 &
b0101 )
b01101100 A
1F
#325
0F
#330
b0110 #
b0110 &
b0110 )
b01110101 A
1F
#335
0F
#340
b0111 #
b0111 &
b0111 )
b01100101 A
1F
#345
0F
#350
b1000 #
1$
b1000 &
1'
b1000 )
1*
10
05
09
b01000001 A
1F
#355
0F
#360
b0000 #
0$
1%
b0000 &
0'
b0000 )
0*
00
01
0@
b11110010 A
1F
#365
0F
#370
1F
#375
0F
#380
12
13
1@
b00010001 A
1F
#385
0F
#390
0%
b00010001 ,
02
03
0@
b00101110 A
b00010001 B
1F
#395
0F
#400
1F
#405
0F
#410
1F
#415
0F
#420
1F
#425
0F
#430
1F
#435
0F
#440
1F
#445
0F
#450
1F
#455
0F
#460
1F
#465
0F
#470
1F
#475
0F
#480
1F
#485
0F
#490
1F
#495
0F
#500
11
15
19
1@
b01110011 A
1F
#505
0F
#510
b0001 #
b0001 &
b0001 )
01
05
09
0@
b10101110 A
1F
#515
0F
#520
11
15
19
1@
b01100101 A
1F
#525
0F
#530
b0010 #
b0010 &
b0010 )
01
05
09
0@
b11001011 A
1F
#535
0F
#540
1F
#545
0F
#550
1F
#555
0F
#560
11
15
19
1@
b01110100 A
1F
#565
0F
#570
b0011 #
b0011 &
b0011 )
01
05
09
0@
b11101000 A
1F
#575
0F
#580
11
15
19
1@
b01010110 A
1F
#585
0F
#590
b0100 #
b0100 &
b0100 )
01
05
09
0@
b00000110 A
1F
#595
0F
#600
11
15
19
1@
b01100001 A
1F
#605
0F
#610
b0101 #
b0101 &
b0101 )
01
05
09
0@
b00111011 A
1F
#615
0F
#620
1F
#625
0F
#630
11
15
19
1@
b01101100 A
1F
#635
0F
#640
b0110 #
b0110 &
b0110 )
b01110101 A
1F
#645
0F
#650
b0111 #
b0111 &
b0111 )
b01100101 A
1F
#655
0F
#660
b1000 #
1$
b1000 &
1'
b1000 )
1*
01
05
09
0@
b00000100 A
1F
#665
0F
#670
14
15
1@
b01000010 A
1F
#675
0F
#680
b0000 #
0$
b0000 &
0'
1(
b0000 )
0*
04
05
16
17
b01010101 A
1F
b01 H
#685
0F
#690
b10110001100011110110111001010101 -
b01 <
b01000100 A
b10110001100011110110111001010101 C
1F
b10 H
#695
0F
#700
b10110001100011110100010001010101 -
06
07
b10 <
0@
b00101001 A
b10110001100011110100010001010101 C
1F
#705
0F
#710
16
17
1@
b00110011 A
1F
b11 H
#715
0F
#720
b10110001001100110100010001010101 -
b11 <
1=
b00100010 A
b10110001001100110100010001010101 C
1F
b00 H
1I
#725
0F
#730
0(
b00100010001100110100010001010101 -
06
07
b00 <
0=
0@
b10101100 A
b00100010001100110100010001010101 C
1F
0I
#735
0F
#740
1F
#745
0F
#750
1F
#755
0F
#760
1F
#765
0F
#770
1F
#775
0F
#780
1F
#785
0F
#790
1F
#795
0F
#800
1F
#805
0F
#810
1F
#815
0F
#820
1F
#825
0F
#830
1F
#835
0F
#840
11
15
19
1@
b01110011 A
1F
#845
0F
#850
b0001 #
b0001 &
b0001 )
01
05
09
0@
b10000010 A
1F
#855
0F
#860
11
15
19
1@
b01100101 A
1F
#865
0F
#870
b0010 #
b0010 &
b0010 )
01
05
09
0@
b01101001 A
1F
#875
0F
#880
1F
#885
0F
#890
1F
#895
0F
#900
11
15
19
1@
b01110100 A
1F
#905
0F
#910
b0011 #
b0011 &
b0011 )
01
05
09
0@
b10000011 A
1F
#915
0F
#920
1F
#925
0F
#930
11
15
19
1@
b01010110 A
1F
#935
0F
#940
b0100 #
b0100 &
b0100 )
01
05
09
0@
b10011101 A
1F
#945
0F
#950
1F
#955
0F
#960
1F
#965
0F
#970
11
15
19
1@
b01100001 A
1F
#975
0F
#980
b0101 #
b0101 &
b0101 )
01
05
09
0@
b01111100 A
1F
#985
0F
#990
1F
#995
0F
#1000
1F
#1005
0F
#1010
11
15
19
1@
b01101100 A
1F
#1015
0F
#1020
b0110 #
b0110 &
b0110 )
b01110101 A
1F
#1025
0F
#1030
b0111 #
b0111 &
b0111 )
01
05
09
0@
b00110110 A
1F
#1035
0F
#1040
11
15
19
1@
b01100101 A
1F
#1045
0F
#1050
b1000 #
1$
b1000 &
1'
b1000 )
1*
01
05
09
0@
b11011100 A
1F
#1055
0F
#1060
1F
#1065
0F
#1070
1F
#1075
0F
#1080
18
19
1@
b01000011 A
1F
#1085
0F
#1090
b0000 #
0$
b0000 &
0'
b0000 )
0*
1+
08
09
0@
b11011101 A
1F
#1095
0F
#1100
1F
#1105
0F
#1110
1:
1;
1@
b10111011 A
1F
b001 J
#1115
0F
#1120
b000100100100000011110100000010001001111010111011 .
0:
0;
b001 >
0@
b01010001 A
b000100100100000011110100000010001001111010111011 D
1F
#1125
0F
#1130
1F
#1135
0F
#1140
1:
1;
1@
b10101010 A
1F
b010 J
#1145
0F
#1150
b000100100100000011110100000010001010101010111011 .
0:
0;
b010 >
0@
b10010000 A
b000100100100000011110100000010001010101010111011 D
1F
#1155
0F
#1160
1F
#1165
0F
#1170
1F
#1175
0F
#1180
1:
1;
1@
b10011001 A
1F
b011 J
#1185
0F
#1190
b000100100100000011110100100110011010101010111011 .
0:
0;
b011 >
0@
b10101011 A
b000100100100000011110100100110011010101010111011 D
1F
#1195
0F
#1200
1F
#1205
0F
#1210
1F
#1215
0F
#1220
1:
1;
1@
b10001000 A
1F
b100 J
#1225
0F
#1230
b000100100100000010001000100110011010101010111011 .
0:
0;
b100 >
0@
b01011010 A
b000100100100000010001000100110011010101010111011 D
1F
#1235
0F
#1240
1F
#1245
0F
#1250
1:
1;
1@
b01110111 A
1F
b101 J
#1255
0F
#1260
b000100100111011110001000100110011010101010111011 .
0:
0;
b101 >
1?
0@
b11100001 A
b000100100111011110001000100110011010101010111011 D
1F
#1265
0F
#1270
1:
1;
1@
b01100110 A
1F
b000 J
1K
#1275
0F
#1280
0+
b011001100111011110001000100110011010101010111011 .
0:
0;
b000 >
0?
0@
b01111110 A
b011001100111011110001000100110011010101010111011 D
1F
0K
#1285
0F
#1290
1F
#1295
0F
#1300
1F
#1305
0F
#1310
1F
#1315
0F
#1320
1F
#1325
0F
#1330
1F
#1335
0F
#1340
1F
#1345
0F
#1350
1F
#1355
0F
#1360
11
15
19
1@
b01110011 A
1F
#1365
0F
#1370
b0001 #
b0001 &
b0001 )
01
05
09
0@
b00101101 A
1F
#1375
0F
#1380
1F
#1385
0F
#1390
11
15
19
1@
b01100101 A
1F
#1395
0F
#1400
b0010 #
b0010 &
b0010 )
01
05
09
0@
b01010101 A
1F
#1405
0F
#1410
1F
#1415
0F
#1420
1F
#1425
0F
#1430
11
15
19
1@
b01110100 A
1F
#1435
0F
#1440
b0011 #
b0011 &
b0011 )
01
05
09
0@
b00011101 A
1F
#1445
0F
#1450
1F
#1455
0F
#1460
1F
#1465
0F
#1470
11
15
19
1@
b01010110 A
1F
#1475
0F
#1480
b0100 #
b0100 &
b0100 )
01
05
09
0@
b00111000 A
1F
#1485
0F
#1490
1F
#1495
0F
#1500
11
15
19
1@
b01100001 A
1F
#1505
0F
#1510
b0101 #
b0101 &
b0101 )
01
05
09
0@
b00000110 A
1F
#1515
0F
#1520
1F
#1525
0F
#1530
11
15
19
1@
b01101100 A
1F
#1535
0F
#1540
b0110 #
b0110 &
b0110 )
b01110101 A
1F
#1545
0F
#1550
b0111 #
b0111 &
b0111 )
01
05
09
0@
b11101100 A
1F
#1555
0F
#1560
11
15
19
1@
b01100101 A
1F
#1565
0F
#1570
b1000 #
1$
b1000 &
1'
b1000 )
1*
01
05
09
0@
b00101100 A
1F
#1575
0F
#1580
14
15
1@
b01000010 A
1F
#1585
0F
#1590
b0000 #
0$
b0000 &
0'
1(
b0000 )
0*
04
05
0@
b00110100 A
1F
#1595
0F
#1600
1F
#1605
0F
#1610
1F
#1615
0F
#1620
16
17
1@
b00001101 A
1F
b01 H
#1625
0F
#1630
b00100010001100110100010000001101 -
06
07
b01 <
0@
b10101101 A
b00100010001100110100010000001101 C
1F
#1635
0F
#1640
16
17
1@
b11110000 A
1F
b10 H
#1645
0F
#1650
b00100010001100111111000000001101 -
06
07
b10 <
0@
b10111010 A
b00100010001100111111000000001101 C
1F
#1655
0F
#1660
1F
#1665
0F
#1670
1F
#1675
0F
#1680
16
17
1@
b11111110 A
1F
b11 H
#1685
0F
#1690
b00100010111111101111000000001101 -
06
07
b11 <
1=
0@
b00101010 A
b00100010111111101111000000001101 C
1F
#1695
0F
#1700
16
17
1@
b11001010 A
1F
b00 H
1I
#1705
0F
#1710
0(
b11001010111111101111000000001101 -
06
07
b00 <
0=
0@
b00101100 A
b11001010111111101111000000001101 C
1F
0I
